<?xml version="1.0" encoding="utf-8"?>
<!DOCTYPE eagle SYSTEM "eagle.dtd">
<eagle version="8.3.2">
<drawing>
<settings>
<setting alwaysvectorfont="no"/>
<setting verticaltext="up"/>
</settings>
<grid distance="1" unitdist="mm" unit="mm" style="lines" multiple="1" display="no" altdistance="0.01" altunitdist="inch" altunit="inch"/>
<layers>
<layer number="1" name="Top" color="4" fill="1" visible="no" active="no"/>
<layer number="2" name="Route2" color="1" fill="3" visible="no" active="no"/>
<layer number="3" name="Route3" color="4" fill="3" visible="no" active="no"/>
<layer number="4" name="Route4" color="1" fill="4" visible="no" active="no"/>
<layer number="5" name="Route5" color="4" fill="4" visible="no" active="no"/>
<layer number="6" name="Route6" color="1" fill="8" visible="no" active="no"/>
<layer number="7" name="Route7" color="4" fill="8" visible="no" active="no"/>
<layer number="8" name="Route8" color="1" fill="2" visible="no" active="no"/>
<layer number="9" name="Route9" color="4" fill="2" visible="no" active="no"/>
<layer number="10" name="Route10" color="1" fill="7" visible="no" active="no"/>
<layer number="11" name="Route11" color="4" fill="7" visible="no" active="no"/>
<layer number="12" name="Route12" color="1" fill="5" visible="no" active="no"/>
<layer number="13" name="Route13" color="4" fill="5" visible="no" active="no"/>
<layer number="14" name="Route14" color="1" fill="6" visible="no" active="no"/>
<layer number="15" name="Route15" color="4" fill="6" visible="no" active="no"/>
<layer number="16" name="Bottom" color="1" fill="1" visible="no" active="no"/>
<layer number="17" name="Pads" color="2" fill="1" visible="no" active="no"/>
<layer number="18" name="Vias" color="2" fill="1" visible="no" active="no"/>
<layer number="19" name="Unrouted" color="6" fill="1" visible="no" active="no"/>
<layer number="20" name="Dimension" color="15" fill="1" visible="no" active="no"/>
<layer number="21" name="tPlace" color="7" fill="1" visible="no" active="no"/>
<layer number="22" name="bPlace" color="7" fill="1" visible="no" active="no"/>
<layer number="23" name="tOrigins" color="15" fill="1" visible="no" active="no"/>
<layer number="24" name="bOrigins" color="15" fill="1" visible="no" active="no"/>
<layer number="25" name="tNames" color="7" fill="1" visible="no" active="no"/>
<layer number="26" name="bNames" color="7" fill="1" visible="no" active="no"/>
<layer number="27" name="tValues" color="7" fill="1" visible="no" active="no"/>
<layer number="28" name="bValues" color="7" fill="1" visible="no" active="no"/>
<layer number="29" name="tStop" color="7" fill="3" visible="no" active="no"/>
<layer number="30" name="bStop" color="7" fill="6" visible="no" active="no"/>
<layer number="31" name="tCream" color="7" fill="4" visible="no" active="no"/>
<layer number="32" name="bCream" color="7" fill="5" visible="no" active="no"/>
<layer number="33" name="tFinish" color="6" fill="3" visible="no" active="no"/>
<layer number="34" name="bFinish" color="6" fill="6" visible="no" active="no"/>
<layer number="35" name="tGlue" color="7" fill="4" visible="no" active="no"/>
<layer number="36" name="bGlue" color="7" fill="5" visible="no" active="no"/>
<layer number="37" name="tTest" color="7" fill="1" visible="no" active="no"/>
<layer number="38" name="bTest" color="7" fill="1" visible="no" active="no"/>
<layer number="39" name="tKeepout" color="4" fill="11" visible="no" active="no"/>
<layer number="40" name="bKeepout" color="1" fill="11" visible="no" active="no"/>
<layer number="41" name="tRestrict" color="4" fill="10" visible="no" active="no"/>
<layer number="42" name="bRestrict" color="1" fill="10" visible="no" active="no"/>
<layer number="43" name="vRestrict" color="2" fill="10" visible="no" active="no"/>
<layer number="44" name="Drills" color="7" fill="1" visible="no" active="no"/>
<layer number="45" name="Holes" color="7" fill="1" visible="no" active="no"/>
<layer number="46" name="Milling" color="3" fill="1" visible="no" active="no"/>
<layer number="47" name="Measures" color="7" fill="1" visible="no" active="no"/>
<layer number="48" name="Document" color="7" fill="1" visible="no" active="no"/>
<layer number="49" name="Reference" color="7" fill="1" visible="no" active="no"/>
<layer number="50" name="dxf" color="7" fill="1" visible="no" active="no"/>
<layer number="51" name="tDocu" color="7" fill="1" visible="no" active="no"/>
<layer number="52" name="bDocu" color="7" fill="1" visible="no" active="no"/>
<layer number="56" name="wert" color="7" fill="1" visible="no" active="no"/>
<layer number="90" name="Modules" color="5" fill="1" visible="yes" active="yes"/>
<layer number="91" name="Nets" color="2" fill="1" visible="yes" active="yes"/>
<layer number="92" name="Busses" color="1" fill="1" visible="yes" active="yes"/>
<layer number="93" name="Pins" color="2" fill="1" visible="no" active="yes"/>
<layer number="94" name="Symbols" color="4" fill="1" visible="yes" active="yes"/>
<layer number="95" name="Names" color="7" fill="1" visible="yes" active="yes"/>
<layer number="96" name="Values" color="7" fill="1" visible="yes" active="yes"/>
<layer number="97" name="Info" color="7" fill="1" visible="yes" active="yes"/>
<layer number="98" name="Guide" color="6" fill="1" visible="yes" active="yes"/>
<layer number="100" name="Mechanical" color="7" fill="1" visible="no" active="no"/>
<layer number="151" name="HeatSink" color="14" fill="1" visible="no" active="yes"/>
<layer number="250" name="Descript" color="3" fill="1" visible="no" active="yes"/>
<layer number="251" name="SMDround" color="12" fill="11" visible="no" active="no"/>
<layer number="254" name="OrgLBR" color="13" fill="1" visible="no" active="yes"/>
</layers>
<schematic xreflabel="%F%N/%S.%C%R" xrefpart="/%S.%C%R">
<libraries>
<library name="MP23AB02BTR">
<packages>
<package name="MIC_MP23AB02BTR">
<polygon width="0" layer="29">
<vertex x="0" y="-0.225"/>
<vertex x="0" y="0.28" curve="-90"/>
<vertex x="0.875" y="-0.595" curve="-90"/>
<vertex x="0" y="-1.47"/>
<vertex x="0" y="-0.965" curve="90"/>
<vertex x="0.37" y="-0.595" curve="90"/>
</polygon>
<polygon width="0" layer="29">
<vertex x="0" y="-0.965"/>
<vertex x="0" y="-1.47" curve="-90"/>
<vertex x="-0.875" y="-0.595" curve="-90"/>
<vertex x="0" y="0.28"/>
<vertex x="0" y="-0.225" curve="90"/>
<vertex x="-0.37" y="-0.595" curve="90"/>
</polygon>
<polygon width="0" layer="1">
<vertex x="-0.95" y="1.225"/>
<vertex x="-0.8" y="1.375"/>
<vertex x="-0.27" y="1.375"/>
<vertex x="-0.27" y="0.475"/>
<vertex x="-0.95" y="0.475"/>
</polygon>
<polygon width="0" layer="1">
<vertex x="0.8" y="1.375"/>
<vertex x="0.27" y="1.375"/>
<vertex x="0.27" y="0.475"/>
<vertex x="0.95" y="0.475"/>
<vertex x="0.95" y="1.225"/>
</polygon>
<polygon width="0" layer="31">
<vertex x="-0.91" y="1.125"/>
<vertex x="-0.71" y="1.325"/>
<vertex x="-0.31" y="1.325"/>
<vertex x="-0.31" y="0.525"/>
<vertex x="-0.91" y="0.525"/>
</polygon>
<polygon width="0" layer="31">
<vertex x="0.71" y="1.325"/>
<vertex x="0.31" y="1.325"/>
<vertex x="0.31" y="0.525"/>
<vertex x="0.91" y="0.525"/>
<vertex x="0.91" y="1.125"/>
</polygon>
<rectangle x1="-1.05131875" y1="0.37546875" x2="-0.17" y2="1.475" layer="29"/>
<rectangle x1="0.1701" y1="0.375221875" x2="1.05" y2="1.475" layer="29"/>
<wire x1="-1.25" y1="1.675" x2="1.25" y2="1.675" width="0.127" layer="21"/>
<wire x1="1.25" y1="1.675" x2="1.25" y2="-1.675" width="0.127" layer="21"/>
<wire x1="1.25" y1="-1.675" x2="-1.25" y2="-1.675" width="0.127" layer="21"/>
<wire x1="-1.25" y1="-1.675" x2="-1.25" y2="1.675" width="0.127" layer="21"/>
<circle x="-1.05" y="1.475" radius="0.075" width="0" layer="21"/>
<wire x1="-1.5" y1="1.9" x2="1.5" y2="1.9" width="0.05" layer="39"/>
<wire x1="1.5" y1="1.9" x2="1.5" y2="-1.9" width="0.05" layer="39"/>
<wire x1="1.5" y1="-1.9" x2="-1.5" y2="-1.9" width="0.05" layer="39"/>
<wire x1="-1.5" y1="-1.9" x2="-1.5" y2="1.9" width="0.05" layer="39"/>
<circle x="-1.75" y="1.675" radius="0.127" width="0" layer="21"/>
<text x="-1.50195" y="1.90246875" size="0.61039375" layer="25">&gt;NAME</text>
<text x="-1.500240625" y="-2.500409375" size="0.6097" layer="27">&gt;VALUE</text>
<circle x="0" y="-0.595" radius="0.625" width="0.3" layer="1"/>
<polygon width="0.001" layer="31">
<vertex x="0.15" y="0.165"/>
<vertex x="0.15" y="-0.145" curve="-70"/>
<vertex x="0.48" y="-0.59" curve="-70"/>
<vertex x="0.15" y="-1.045"/>
<vertex x="0.15" y="-1.355" curve="79"/>
<vertex x="0.775" y="-0.59" curve="79"/>
</polygon>
<polygon width="0.001" layer="31">
<vertex x="-0.15" y="0.165"/>
<vertex x="-0.15" y="-0.145" curve="70"/>
<vertex x="-0.48" y="-0.59" curve="70"/>
<vertex x="-0.15" y="-1.045"/>
<vertex x="-0.15" y="-1.355" curve="-79"/>
<vertex x="-0.775" y="-0.59" curve="-79"/>
</polygon>
<smd name="3" x="0" y="0" dx="0.1" dy="0.1" layer="1" stop="no" cream="no"/>
<smd name="1" x="-0.895" y="0.53" dx="0.1" dy="0.1" layer="1" stop="no" cream="no"/>
<smd name="2" x="0.895" y="0.53" dx="0.1" dy="0.1" layer="1" stop="no" cream="no"/>
<hole x="0" y="-0.595" drill="0.75"/>
</package>
</packages>
<symbols>
<symbol name="MP23AB02BTR">
<wire x1="10.16" y1="5.08" x2="10.16" y2="-5.08" width="0.254" layer="94"/>
<wire x1="10.16" y1="-5.08" x2="-10.16" y2="-5.08" width="0.254" layer="94"/>
<wire x1="-10.16" y1="-5.08" x2="-10.16" y2="5.08" width="0.254" layer="94"/>
<wire x1="-10.16" y1="5.08" x2="10.16" y2="5.08" width="0.254" layer="94"/>
<text x="-10.1711" y="5.594109375" size="2.54278125" layer="95">&gt;NAME</text>
<text x="-10.1713" y="-8.137" size="2.542809375" layer="96">&gt;VALUE</text>
<pin name="OUT" x="-15.24" y="-2.54" length="middle" direction="out"/>
<pin name="VDD" x="15.24" y="2.54" length="middle" direction="pwr" rot="R180"/>
<pin name="GND" x="15.24" y="-2.54" length="middle" direction="pwr" rot="R180"/>
</symbol>
</symbols>
<devicesets>
<deviceset name="MP23AB02BTR" prefix="MK">
<description>MP23AB02B: 3.6V 150 uA MEMS Audio Sensor High-Performance Bottom-Port Microphone</description>
<gates>
<gate name="G$1" symbol="MP23AB02BTR" x="0" y="0"/>
</gates>
<devices>
<device name="" package="MIC_MP23AB02BTR">
<connects>
<connect gate="G$1" pin="GND" pad="3"/>
<connect gate="G$1" pin="OUT" pad="1"/>
<connect gate="G$1" pin="VDD" pad="2"/>
</connects>
<technologies>
<technology name="">
<attribute name="AVAILABILITY" value="Unavailable"/>
<attribute name="DESCRIPTION" value=""/>
<attribute name="MF" value="Analog Devices"/>
<attribute name="MP" value="MP23AB02BTR"/>
<attribute name="PACKAGE" value="None"/>
<attribute name="PRICE" value="None"/>
</technology>
</technologies>
</device>
</devices>
</deviceset>
</devicesets>
</library>
<library name="dpads">
<description>&lt;b&gt;Wire Pads and Test Points&lt;/b&gt;&lt;p&gt;
Wire pads are in standard US drill# sizes&lt;br&gt;&lt;br&gt;
&lt;h4&gt;&lt;i&gt;Copyright (C) 2004, Bob Starr (bobstarr@mindspring.com)&lt;br&gt;
Updated 01/20/2005&lt;/i&gt;&lt;/h4&gt;</description>
<packages>
<package name="0240">
<description>Drill 0.024" (#73)</description>
<circle x="0" y="0" radius="0.898" width="0.2032" layer="21"/>
<pad name="P$1" x="0" y="0" drill="0.6096" diameter="1.27"/>
<text x="1.4288" y="-0.635" size="1.27" layer="25" ratio="10">&gt;NAME</text>
</package>
<package name="0280">
<description>Drill 0.028" (#70)</description>
<circle x="0" y="0" radius="1.004" width="0.2032" layer="21"/>
<pad name="P$1" x="0" y="0" drill="0.7112" diameter="1.4224"/>
<text x="1.5875" y="-0.635" size="1.27" layer="25" ratio="10">&gt;NAME</text>
</package>
<package name="0320">
<description>Drill 0.032" (#67)</description>
<circle x="0" y="0" radius="1.1447" width="0.2032" layer="21"/>
<pad name="P$1" x="0" y="0" drill="0.8128" diameter="1.6764"/>
<text x="1.7463" y="-0.635" size="1.27" layer="25" ratio="10">&gt;NAME</text>
</package>
<package name="0360">
<description>Drill 0.036" (#64)</description>
<circle x="0" y="0" radius="1.1447" width="0.2032" layer="21"/>
<pad name="P$1" x="0" y="0" drill="0.9144" diameter="1.778"/>
<text x="1.7463" y="-0.635" size="1.27" layer="25" ratio="10">&gt;NAME</text>
</package>
<package name="0420">
<description>Drill 0.042" (#58)</description>
<circle x="0" y="0" radius="1.347" width="0.2032" layer="21"/>
<pad name="P$1" x="0" y="0" drill="1.0668" diameter="2.1844"/>
<text x="1.905" y="-0.635" size="1.27" layer="25" ratio="10">&gt;NAME</text>
</package>
<package name="0465">
<description>Drill 0.0465" (#56)</description>
<circle x="0" y="0" radius="1.5875" width="0.2032" layer="21"/>
<pad name="P$1" x="0" y="0" drill="1.181" diameter="2.54"/>
<text x="2.2225" y="-0.635" size="1.27" layer="25" ratio="10">&gt;NAME</text>
</package>
<package name="0520">
<description>Drill 0.052" (#55)</description>
<circle x="0" y="0" radius="1.9312" width="0.2032" layer="21"/>
<pad name="P$1" x="0" y="0" drill="1.3208" diameter="3.175"/>
<text x="2.6988" y="-0.635" size="1.27" layer="25" ratio="10">&gt;NAME</text>
</package>
<package name="0550">
<description>Drill 0.055" (#54)</description>
<circle x="0" y="0" radius="2.0699" width="0.2032" layer="21"/>
<pad name="P$1" x="0" y="0" drill="1.397" diameter="3.429"/>
<text x="2.8575" y="-0.635" size="1.27" layer="25" ratio="10">&gt;NAME</text>
</package>
<package name="0595">
<description>Drill 0.0595" (#53)</description>
<circle x="0" y="0" radius="2.0699" width="0.2032" layer="21"/>
<pad name="P$1" x="0" y="0" drill="1.5112" diameter="3.429"/>
<text x="2.8576" y="-0.635" size="1.27" layer="25" ratio="10">&gt;NAME</text>
</package>
<package name="0635">
<description>Drill 0.0635" (#52)</description>
<circle x="0" y="0" radius="2.2111" width="0.2032" layer="21"/>
<pad name="P$1" x="0" y="0" drill="1.6128" diameter="3.683"/>
<text x="3.0163" y="-0.635" size="1.27" layer="25" ratio="10">&gt;NAME</text>
</package>
<package name="0670">
<description>Drill 0.067" (#51)</description>
<circle x="0" y="0" radius="2.2895" width="0.2032" layer="21"/>
<pad name="P$1" x="0" y="0" drill="1.7018" diameter="3.81"/>
<text x="2.8576" y="-0.635" size="1.27" layer="25" ratio="10">&gt;NAME</text>
</package>
<package name="0730">
<description>Drill 0.073" (#49)</description>
<circle x="0" y="0" radius="2.3114" width="0.2032" layer="21"/>
<pad name="P$1" x="0" y="0" drill="1.8542" diameter="3.81"/>
<text x="2.8576" y="-0.635" size="1.27" layer="25" ratio="10">&gt;NAME</text>
</package>
<package name="0760">
<description>Drill 0.076" (#48)</description>
<circle x="0" y="0" radius="2.2729" width="0.2032" layer="21"/>
<pad name="P$1" x="0" y="0" drill="1.9304" diameter="3.81"/>
<text x="2.8576" y="-0.635" size="1.27" layer="25" ratio="10">&gt;NAME</text>
</package>
<package name="0820">
<description>Drill 0.082" (#45)</description>
<circle x="0" y="0" radius="2.2729" width="0.2032" layer="21"/>
<pad name="P$1" x="0" y="0" drill="2.0828" diameter="3.81"/>
<text x="2.8575" y="-0.635" size="1.27" layer="25" ratio="10">&gt;NAME</text>
</package>
<package name="0660">
<description>Drill 0.066"</description>
<circle x="0" y="0" radius="2.2895" width="0.2032" layer="21"/>
<pad name="P$1" x="0" y="0" drill="1.6764" diameter="3.81"/>
<text x="2.8576" y="-0.635" size="1.27" layer="25" ratio="10">&gt;NAME</text>
</package>
<package name="0560">
<description>Drill 0.056"</description>
<circle x="0" y="0" radius="2.0699" width="0.2032" layer="21"/>
<pad name="P$1" x="0" y="0" drill="1.4224" diameter="3.429"/>
<text x="2.8575" y="-0.635" size="1.27" layer="25" ratio="10">&gt;NAME</text>
</package>
<package name="0460">
<description>Drill 0.0460"</description>
<circle x="0" y="0" radius="1.5875" width="0.2032" layer="21"/>
<pad name="P$1" x="0" y="0" drill="1.1684" diameter="2.54"/>
<text x="2.2225" y="-0.635" size="1.27" layer="25" ratio="10">&gt;NAME</text>
</package>
<package name="0440">
<description>Drill 0.044"</description>
<circle x="0" y="0" radius="1.5875" width="0.2032" layer="21"/>
<pad name="P$1" x="0" y="0" drill="1.1176" diameter="2.54"/>
<text x="2.2225" y="-0.635" size="1.27" layer="25" ratio="10">&gt;NAME</text>
</package>
<package name="0400">
<description>Drill 0.040" (#60)</description>
<circle x="0" y="0" radius="1.347" width="0.2032" layer="21"/>
<pad name="P$1" x="0" y="0" drill="1.016" diameter="2.1844"/>
<text x="1.905" y="-0.635" size="1.27" layer="25" ratio="10">&gt;NAME</text>
</package>
<package name="0500">
<description>Drill 0.050"</description>
<circle x="0" y="0" radius="1.9312" width="0.2032" layer="21"/>
<pad name="P$1" x="0" y="0" drill="1.27" diameter="3.175"/>
<text x="2.6988" y="-0.635" size="1.27" layer="25" ratio="10">&gt;NAME</text>
</package>
<package name="0240-S">
<wire x1="-0.7938" y1="0.7938" x2="-0.3175" y2="0.7938" width="0.2032" layer="21"/>
<wire x1="-0.7938" y1="0.7938" x2="-0.7938" y2="0.3175" width="0.2032" layer="21"/>
<wire x1="0.3175" y1="0.7938" x2="0.7938" y2="0.7938" width="0.2032" layer="21"/>
<wire x1="0.7938" y1="0.7938" x2="0.7938" y2="0.3175" width="0.2032" layer="21"/>
<wire x1="0.7938" y1="-0.3175" x2="0.7938" y2="-0.7938" width="0.2032" layer="21"/>
<wire x1="0.7938" y1="-0.7938" x2="0.3175" y2="-0.7938" width="0.2032" layer="21"/>
<wire x1="-0.7938" y1="-0.3175" x2="-0.7938" y2="-0.7938" width="0.2032" layer="21"/>
<wire x1="-0.7938" y1="-0.7938" x2="-0.3175" y2="-0.7938" width="0.2032" layer="21"/>
<pad name="P$1" x="0" y="0" drill="0.6096" diameter="1.27" shape="octagon"/>
<text x="1.4288" y="-0.635" size="1.27" layer="25" ratio="10">&gt;NAME</text>
</package>
<package name="0280-S">
<wire x1="-0.7938" y1="0.7938" x2="-0.3175" y2="0.7938" width="0.2032" layer="21"/>
<wire x1="-0.7938" y1="0.7938" x2="-0.7938" y2="0.3175" width="0.2032" layer="21"/>
<wire x1="0.3175" y1="0.7938" x2="0.7938" y2="0.7938" width="0.2032" layer="21"/>
<wire x1="0.7938" y1="0.7938" x2="0.7938" y2="0.3175" width="0.2032" layer="21"/>
<wire x1="0.7938" y1="-0.3175" x2="0.7938" y2="-0.7938" width="0.2032" layer="21"/>
<wire x1="0.7938" y1="-0.7938" x2="0.3175" y2="-0.7938" width="0.2032" layer="21"/>
<wire x1="-0.7938" y1="-0.3175" x2="-0.7938" y2="-0.7938" width="0.2032" layer="21"/>
<wire x1="-0.7938" y1="-0.7938" x2="-0.3175" y2="-0.7938" width="0.2032" layer="21"/>
<pad name="P$1" x="0" y="0" drill="0.7112" diameter="1.4224" shape="octagon"/>
<text x="1.5875" y="-0.635" size="1.27" layer="25" ratio="10">&gt;NAME</text>
</package>
<package name="0320-S">
<wire x1="-0.9525" y1="0.9525" x2="-0.4763" y2="0.9525" width="0.2032" layer="21"/>
<wire x1="-0.9525" y1="0.9525" x2="-0.9525" y2="0.4763" width="0.2032" layer="21"/>
<wire x1="0.4763" y1="0.9525" x2="0.9525" y2="0.9525" width="0.2032" layer="21"/>
<wire x1="0.9525" y1="0.9525" x2="0.9525" y2="0.4763" width="0.2032" layer="21"/>
<wire x1="0.9525" y1="-0.4763" x2="0.9525" y2="-0.9525" width="0.2032" layer="21"/>
<wire x1="0.9525" y1="-0.9525" x2="0.4763" y2="-0.9525" width="0.2032" layer="21"/>
<wire x1="-0.9525" y1="-0.4763" x2="-0.9525" y2="-0.9525" width="0.2032" layer="21"/>
<wire x1="-0.9525" y1="-0.9525" x2="-0.4763" y2="-0.9525" width="0.2032" layer="21"/>
<pad name="P$1" x="0" y="0" drill="0.8128" diameter="1.6764" shape="octagon"/>
<text x="1.7463" y="-0.635" size="1.27" layer="25" ratio="10">&gt;NAME</text>
</package>
<package name="0360-S">
<wire x1="-0.9525" y1="0.9525" x2="-0.4763" y2="0.9525" width="0.2032" layer="21"/>
<wire x1="-0.9525" y1="0.9525" x2="-0.9525" y2="0.4763" width="0.2032" layer="21"/>
<wire x1="0.4763" y1="0.9525" x2="0.9525" y2="0.9525" width="0.2032" layer="21"/>
<wire x1="0.9525" y1="0.9525" x2="0.9525" y2="0.4763" width="0.2032" layer="21"/>
<wire x1="0.9525" y1="-0.4763" x2="0.9525" y2="-0.9525" width="0.2032" layer="21"/>
<wire x1="0.9525" y1="-0.9525" x2="0.4763" y2="-0.9525" width="0.2032" layer="21"/>
<wire x1="-0.9525" y1="-0.4763" x2="-0.9525" y2="-0.9525" width="0.2032" layer="21"/>
<wire x1="-0.9525" y1="-0.9525" x2="-0.4763" y2="-0.9525" width="0.2032" layer="21"/>
<pad name="P$1" x="0" y="0" drill="0.9144" diameter="1.778" shape="octagon"/>
<text x="1.7463" y="-0.635" size="1.27" layer="25" ratio="10">&gt;NAME</text>
</package>
<package name="0400-S">
<wire x1="-1.1113" y1="1.1113" x2="-0.635" y2="1.1113" width="0.2032" layer="21"/>
<wire x1="-1.1113" y1="1.1113" x2="-1.1113" y2="0.6351" width="0.2032" layer="21"/>
<wire x1="0.635" y1="1.1113" x2="1.1113" y2="1.1113" width="0.2032" layer="21"/>
<wire x1="1.1113" y1="1.1113" x2="1.1113" y2="0.6351" width="0.2032" layer="21"/>
<wire x1="1.1113" y1="-0.635" x2="1.1113" y2="-1.1112" width="0.2032" layer="21"/>
<wire x1="1.1113" y1="-1.1112" x2="0.635" y2="-1.1112" width="0.2032" layer="21"/>
<wire x1="-1.1113" y1="-0.635" x2="-1.1113" y2="-1.1112" width="0.2032" layer="21"/>
<wire x1="-1.1113" y1="-1.1112" x2="-0.6351" y2="-1.1112" width="0.2032" layer="21"/>
<pad name="P$1" x="0" y="0" drill="1.016" diameter="2.1844" shape="octagon"/>
<text x="1.905" y="-0.635" size="1.27" layer="25" ratio="10">&gt;NAME</text>
</package>
<package name="0420-S">
<wire x1="-1.1113" y1="1.1113" x2="-0.635" y2="1.1113" width="0.2032" layer="21"/>
<wire x1="-1.1113" y1="1.1113" x2="-1.1113" y2="0.6351" width="0.2032" layer="21"/>
<wire x1="0.635" y1="1.1113" x2="1.1113" y2="1.1113" width="0.2032" layer="21"/>
<wire x1="1.1113" y1="1.1113" x2="1.1113" y2="0.6351" width="0.2032" layer="21"/>
<wire x1="1.1113" y1="-0.635" x2="1.1113" y2="-1.1112" width="0.2032" layer="21"/>
<wire x1="1.1113" y1="-1.1112" x2="0.635" y2="-1.1112" width="0.2032" layer="21"/>
<wire x1="-1.1113" y1="-0.635" x2="-1.1113" y2="-1.1112" width="0.2032" layer="21"/>
<wire x1="-1.1113" y1="-1.1112" x2="-0.6351" y2="-1.1112" width="0.2032" layer="21"/>
<pad name="P$1" x="0" y="0" drill="1.0668" diameter="2.1844" shape="octagon"/>
<text x="1.905" y="-0.635" size="1.27" layer="25" ratio="10">&gt;NAME</text>
</package>
<package name="0440-S">
<wire x1="-1.27" y1="1.27" x2="-0.7938" y2="1.27" width="0.2032" layer="21"/>
<wire x1="-1.27" y1="1.27" x2="-1.27" y2="0.7939" width="0.2032" layer="21"/>
<wire x1="0.7938" y1="1.27" x2="1.27" y2="1.27" width="0.2032" layer="21"/>
<wire x1="1.27" y1="1.27" x2="1.27" y2="0.7939" width="0.2032" layer="21"/>
<wire x1="1.27" y1="-0.7938" x2="1.27" y2="-1.2699" width="0.2032" layer="21"/>
<wire x1="1.27" y1="-1.2699" x2="0.7937" y2="-1.2699" width="0.2032" layer="21"/>
<wire x1="-1.27" y1="-0.7938" x2="-1.27" y2="-1.2699" width="0.2032" layer="21"/>
<wire x1="-1.27" y1="-1.2699" x2="-0.7939" y2="-1.2699" width="0.2032" layer="21"/>
<pad name="P$1" x="0" y="0" drill="1.1176" diameter="2.54" shape="octagon"/>
<text x="2.2225" y="-0.635" size="1.27" layer="25" ratio="10">&gt;NAME</text>
</package>
<package name="0460-S">
<wire x1="-1.27" y1="1.2701" x2="-0.7938" y2="1.27" width="0.2032" layer="21"/>
<wire x1="-1.27" y1="1.2701" x2="-1.27" y2="0.7939" width="0.2032" layer="21"/>
<wire x1="0.7938" y1="1.27" x2="1.27" y2="1.27" width="0.2032" layer="21"/>
<wire x1="1.27" y1="1.27" x2="1.27" y2="0.7939" width="0.2032" layer="21"/>
<wire x1="1.2699" y1="-0.7938" x2="1.2699" y2="-1.2699" width="0.2032" layer="21"/>
<wire x1="1.2699" y1="-1.2699" x2="0.7938" y2="-1.2699" width="0.2032" layer="21"/>
<wire x1="-1.27" y1="-0.7938" x2="-1.27" y2="-1.2699" width="0.2032" layer="21"/>
<wire x1="-1.27" y1="-1.2699" x2="-0.7939" y2="-1.2699" width="0.2032" layer="21"/>
<pad name="P$1" x="0" y="0" drill="1.1684" diameter="2.54" shape="octagon"/>
<text x="2.2225" y="-0.635" size="1.27" layer="25" ratio="10">&gt;NAME</text>
</package>
<package name="0465-S">
<wire x1="-1.27" y1="1.2701" x2="-0.7938" y2="1.27" width="0.2032" layer="21"/>
<wire x1="-1.27" y1="1.2701" x2="-1.27" y2="0.7939" width="0.2032" layer="21"/>
<wire x1="0.7938" y1="1.27" x2="1.27" y2="1.27" width="0.2032" layer="21"/>
<wire x1="1.27" y1="1.27" x2="1.27" y2="0.7939" width="0.2032" layer="21"/>
<wire x1="1.27" y1="-0.7938" x2="1.27" y2="-1.2699" width="0.2032" layer="21"/>
<wire x1="1.27" y1="-1.2699" x2="0.7938" y2="-1.2699" width="0.2032" layer="21"/>
<wire x1="-1.27" y1="-0.7938" x2="-1.27" y2="-1.2699" width="0.2032" layer="21"/>
<wire x1="-1.27" y1="-1.2699" x2="-0.7939" y2="-1.2699" width="0.2032" layer="21"/>
<pad name="P$1" x="0" y="0" drill="1.181" diameter="2.54" shape="octagon"/>
<text x="2.2225" y="-0.635" size="1.27" layer="25" ratio="10">&gt;NAME</text>
</package>
<package name="0500-S">
<wire x1="-1.5875" y1="1.5876" x2="-0.9525" y2="1.5875" width="0.2032" layer="21"/>
<wire x1="-1.5875" y1="1.5876" x2="-1.5875" y2="0.9527" width="0.2032" layer="21"/>
<wire x1="0.9526" y1="1.5875" x2="1.5875" y2="1.5875" width="0.2032" layer="21"/>
<wire x1="1.5875" y1="1.5875" x2="1.5875" y2="0.9527" width="0.2032" layer="21"/>
<wire x1="1.5875" y1="-0.9525" x2="1.5875" y2="-1.5874" width="0.2032" layer="21"/>
<wire x1="1.5875" y1="-1.5874" x2="0.9525" y2="-1.5874" width="0.2032" layer="21"/>
<wire x1="-1.5875" y1="-0.9525" x2="-1.5875" y2="-1.5874" width="0.2032" layer="21"/>
<wire x1="-1.5875" y1="-1.5874" x2="-0.9527" y2="-1.5874" width="0.2032" layer="21"/>
<pad name="P$1" x="0" y="0" drill="1.27" diameter="3.175" shape="octagon"/>
<text x="2.6988" y="-0.635" size="1.27" layer="25" ratio="10">&gt;NAME</text>
</package>
<package name="0520-S">
<wire x1="-1.5875" y1="1.5876" x2="-0.9525" y2="1.5875" width="0.2032" layer="21"/>
<wire x1="-1.5875" y1="1.5876" x2="-1.5875" y2="0.9527" width="0.2032" layer="21"/>
<wire x1="0.9526" y1="1.5875" x2="1.5875" y2="1.5875" width="0.2032" layer="21"/>
<wire x1="1.5875" y1="1.5875" x2="1.5875" y2="0.9527" width="0.2032" layer="21"/>
<wire x1="1.5875" y1="-0.9525" x2="1.5875" y2="-1.5874" width="0.2032" layer="21"/>
<wire x1="1.5875" y1="-1.5874" x2="0.9525" y2="-1.5874" width="0.2032" layer="21"/>
<wire x1="-1.5875" y1="-0.9525" x2="-1.5875" y2="-1.5874" width="0.2032" layer="21"/>
<wire x1="-1.5875" y1="-1.5874" x2="-0.9527" y2="-1.5874" width="0.2032" layer="21"/>
<pad name="P$1" x="0" y="0" drill="1.3208" diameter="3.175" shape="octagon"/>
<text x="2.6988" y="-0.635" size="1.27" layer="25" ratio="10">&gt;NAME</text>
</package>
<package name="0550-S">
<wire x1="-1.7463" y1="1.7464" x2="-0.9525" y2="1.7463" width="0.2032" layer="21"/>
<wire x1="-1.7463" y1="1.7464" x2="-1.7463" y2="0.9527" width="0.2032" layer="21"/>
<wire x1="0.9526" y1="1.7463" x2="1.7463" y2="1.7463" width="0.2032" layer="21"/>
<wire x1="1.7463" y1="1.7463" x2="1.7463" y2="0.9527" width="0.2032" layer="21"/>
<wire x1="1.7463" y1="-0.9525" x2="1.7463" y2="-1.7462" width="0.2032" layer="21"/>
<wire x1="1.7463" y1="-1.7462" x2="0.9525" y2="-1.7462" width="0.2032" layer="21"/>
<wire x1="-1.7463" y1="-0.9525" x2="-1.7463" y2="-1.7462" width="0.2032" layer="21"/>
<wire x1="-1.7463" y1="-1.7462" x2="-0.9527" y2="-1.7462" width="0.2032" layer="21"/>
<pad name="P$1" x="0" y="0" drill="1.397" diameter="3.429" shape="octagon"/>
<text x="2.8575" y="-0.635" size="1.27" layer="25" ratio="10">&gt;NAME</text>
</package>
<package name="0560-S">
<wire x1="-1.7463" y1="1.7464" x2="-0.9525" y2="1.7463" width="0.2032" layer="21"/>
<wire x1="-1.7463" y1="1.7464" x2="-1.7463" y2="0.9527" width="0.2032" layer="21"/>
<wire x1="0.9526" y1="1.7463" x2="1.7463" y2="1.7463" width="0.2032" layer="21"/>
<wire x1="1.7463" y1="1.7463" x2="1.7463" y2="0.9527" width="0.2032" layer="21"/>
<wire x1="1.7463" y1="-0.9525" x2="1.7463" y2="-1.7462" width="0.2032" layer="21"/>
<wire x1="1.7463" y1="-1.7462" x2="0.9525" y2="-1.7462" width="0.2032" layer="21"/>
<wire x1="-1.7463" y1="-0.9525" x2="-1.7463" y2="-1.7462" width="0.2032" layer="21"/>
<wire x1="-1.7463" y1="-1.7462" x2="-0.9527" y2="-1.7462" width="0.2032" layer="21"/>
<pad name="P$1" x="0" y="0" drill="1.4224" diameter="3.429" shape="octagon"/>
<text x="2.8575" y="-0.635" size="1.27" layer="25" ratio="10">&gt;NAME</text>
</package>
<package name="0595-S">
<wire x1="-1.7463" y1="1.7464" x2="-0.9525" y2="1.7463" width="0.2032" layer="21"/>
<wire x1="-1.7463" y1="1.7464" x2="-1.7463" y2="0.9527" width="0.2032" layer="21"/>
<wire x1="0.9526" y1="1.7463" x2="1.7463" y2="1.7463" width="0.2032" layer="21"/>
<wire x1="1.7463" y1="1.7463" x2="1.7463" y2="0.9527" width="0.2032" layer="21"/>
<wire x1="1.7463" y1="-0.9525" x2="1.7463" y2="-1.7462" width="0.2032" layer="21"/>
<wire x1="1.7463" y1="-1.7462" x2="0.9525" y2="-1.7462" width="0.2032" layer="21"/>
<wire x1="-1.7463" y1="-0.9525" x2="-1.7463" y2="-1.7462" width="0.2032" layer="21"/>
<wire x1="-1.7463" y1="-1.7462" x2="-0.9527" y2="-1.7462" width="0.2032" layer="21"/>
<pad name="P$1" x="0" y="0" drill="1.5112" diameter="3.429" shape="octagon"/>
<text x="2.8576" y="-0.635" size="1.27" layer="25" ratio="10">&gt;NAME</text>
</package>
<package name="0635-S">
<wire x1="-1.9049" y1="1.905" x2="-0.9524" y2="1.9049" width="0.2032" layer="21"/>
<wire x1="-1.9049" y1="1.905" x2="-1.9049" y2="0.9526" width="0.2032" layer="21"/>
<wire x1="0.9527" y1="1.9049" x2="1.905" y2="1.9049" width="0.2032" layer="21"/>
<wire x1="1.905" y1="1.9049" x2="1.905" y2="0.9526" width="0.2032" layer="21"/>
<wire x1="1.9051" y1="-0.9525" x2="1.905" y2="-1.9049" width="0.2032" layer="21"/>
<wire x1="1.905" y1="-1.9049" x2="0.9526" y2="-1.9049" width="0.2032" layer="21"/>
<wire x1="-1.9049" y1="-0.9525" x2="-1.9049" y2="-1.9049" width="0.2032" layer="21"/>
<wire x1="-1.9049" y1="-1.9049" x2="-0.9526" y2="-1.9049" width="0.2032" layer="21"/>
<pad name="P$1" x="0" y="0" drill="1.6128" diameter="3.683" shape="octagon"/>
<text x="3.0163" y="-0.635" size="1.27" layer="25" ratio="10">&gt;NAME</text>
</package>
<package name="0660-S">
<wire x1="-1.9049" y1="1.905" x2="-0.9524" y2="1.9049" width="0.2032" layer="21"/>
<wire x1="-1.9049" y1="1.905" x2="-1.9049" y2="0.9526" width="0.2032" layer="21"/>
<wire x1="0.9527" y1="1.9049" x2="1.905" y2="1.9049" width="0.2032" layer="21"/>
<wire x1="1.905" y1="1.9049" x2="1.905" y2="0.9526" width="0.2032" layer="21"/>
<wire x1="1.9051" y1="-0.9525" x2="1.905" y2="-1.9049" width="0.2032" layer="21"/>
<wire x1="1.905" y1="-1.9049" x2="0.9526" y2="-1.9049" width="0.2032" layer="21"/>
<wire x1="-1.9049" y1="-0.9525" x2="-1.9049" y2="-1.9049" width="0.2032" layer="21"/>
<wire x1="-1.9049" y1="-1.9049" x2="-0.9526" y2="-1.9049" width="0.2032" layer="21"/>
<pad name="P$1" x="0" y="0" drill="1.6764" diameter="3.81" shape="octagon"/>
<text x="2.8576" y="-0.635" size="1.27" layer="25" ratio="10">&gt;NAME</text>
</package>
<package name="0670-S">
<wire x1="-1.9049" y1="1.905" x2="-0.9524" y2="1.9049" width="0.2032" layer="21"/>
<wire x1="-1.9049" y1="1.905" x2="-1.9049" y2="0.9526" width="0.2032" layer="21"/>
<wire x1="0.9527" y1="1.9049" x2="1.905" y2="1.9049" width="0.2032" layer="21"/>
<wire x1="1.905" y1="1.9049" x2="1.905" y2="0.9526" width="0.2032" layer="21"/>
<wire x1="1.9051" y1="-0.9525" x2="1.905" y2="-1.9049" width="0.2032" layer="21"/>
<wire x1="1.905" y1="-1.9049" x2="0.9526" y2="-1.9049" width="0.2032" layer="21"/>
<wire x1="-1.9049" y1="-0.9525" x2="-1.9049" y2="-1.9049" width="0.2032" layer="21"/>
<wire x1="-1.9049" y1="-1.9049" x2="-0.9526" y2="-1.9049" width="0.2032" layer="21"/>
<pad name="P$1" x="0" y="0" drill="1.7018" diameter="3.81" shape="octagon"/>
<text x="2.8576" y="-0.635" size="1.27" layer="25" ratio="10">&gt;NAME</text>
</package>
<package name="0730-S">
<wire x1="-1.9049" y1="1.905" x2="-0.9524" y2="1.9049" width="0.2032" layer="21"/>
<wire x1="-1.9049" y1="1.905" x2="-1.9049" y2="0.9526" width="0.2032" layer="21"/>
<wire x1="0.9527" y1="1.9049" x2="1.905" y2="1.9049" width="0.2032" layer="21"/>
<wire x1="1.905" y1="1.9049" x2="1.905" y2="0.9526" width="0.2032" layer="21"/>
<wire x1="1.9051" y1="-0.9525" x2="1.905" y2="-1.9049" width="0.2032" layer="21"/>
<wire x1="1.905" y1="-1.9049" x2="0.9526" y2="-1.9049" width="0.2032" layer="21"/>
<wire x1="-1.9049" y1="-0.9525" x2="-1.9049" y2="-1.9049" width="0.2032" layer="21"/>
<wire x1="-1.9049" y1="-1.9049" x2="-0.9526" y2="-1.9049" width="0.2032" layer="21"/>
<pad name="P$1" x="0" y="0" drill="1.8542" diameter="3.81" shape="octagon"/>
<text x="2.8576" y="-0.635" size="1.27" layer="25" ratio="10">&gt;NAME</text>
</package>
<package name="0760-S">
<wire x1="-1.9049" y1="1.905" x2="-0.9524" y2="1.9049" width="0.2032" layer="21"/>
<wire x1="-1.9049" y1="1.905" x2="-1.9049" y2="0.9526" width="0.2032" layer="21"/>
<wire x1="0.9527" y1="1.9049" x2="1.905" y2="1.9049" width="0.2032" layer="21"/>
<wire x1="1.905" y1="1.9049" x2="1.905" y2="0.9526" width="0.2032" layer="21"/>
<wire x1="1.9051" y1="-0.9525" x2="1.905" y2="-1.9049" width="0.2032" layer="21"/>
<wire x1="1.905" y1="-1.9049" x2="0.9526" y2="-1.9049" width="0.2032" layer="21"/>
<wire x1="-1.9049" y1="-0.9525" x2="-1.9049" y2="-1.9049" width="0.2032" layer="21"/>
<wire x1="-1.9049" y1="-1.9049" x2="-0.9526" y2="-1.9049" width="0.2032" layer="21"/>
<pad name="P$1" x="0" y="0" drill="1.9304" diameter="3.81" shape="octagon"/>
<text x="2.8576" y="-0.635" size="1.27" layer="25" ratio="10">&gt;NAME</text>
</package>
<package name="0820-S">
<wire x1="-1.9049" y1="1.905" x2="-0.9524" y2="1.9049" width="0.2032" layer="21"/>
<wire x1="-1.9049" y1="1.905" x2="-1.9049" y2="0.9526" width="0.2032" layer="21"/>
<wire x1="0.9527" y1="1.9049" x2="1.905" y2="1.9049" width="0.2032" layer="21"/>
<wire x1="1.905" y1="1.9049" x2="1.905" y2="0.9526" width="0.2032" layer="21"/>
<wire x1="1.9051" y1="-0.9525" x2="1.905" y2="-1.9049" width="0.2032" layer="21"/>
<wire x1="1.905" y1="-1.9049" x2="0.9526" y2="-1.9049" width="0.2032" layer="21"/>
<wire x1="-1.9049" y1="-0.9525" x2="-1.9049" y2="-1.9049" width="0.2032" layer="21"/>
<wire x1="-1.9049" y1="-1.9049" x2="-0.9526" y2="-1.9049" width="0.2032" layer="21"/>
<pad name="P$1" x="0" y="0" drill="2.0828" diameter="3.81" shape="octagon"/>
<text x="2.8575" y="-0.635" size="1.27" layer="25" ratio="10">&gt;NAME</text>
</package>
<package name="SMD06R">
<description>&lt;b&gt;SMD PAD&lt;/b&gt;&lt;p&gt; Round</description>
<circle x="0" y="0" radius="0.2245" width="0.127" layer="51"/>
<smd name="PAD" x="0" y="0" dx="0.6" dy="0.6" layer="1" roundness="100"/>
<text x="0.4763" y="-0.4763" size="1.016" layer="25" ratio="12">&gt;NAME</text>
</package>
<package name="SMD06S">
<description>&lt;b&gt;SMD PAD&lt;/b&gt;&lt;p&gt; Square</description>
<wire x1="-0.2381" y1="0.2381" x2="0.2381" y2="0.2381" width="0.127" layer="51"/>
<wire x1="0.2381" y1="0.2381" x2="0.2381" y2="-0.2381" width="0.127" layer="51"/>
<wire x1="0.2381" y1="-0.2381" x2="-0.2381" y2="-0.2381" width="0.127" layer="51"/>
<wire x1="-0.2381" y1="-0.2381" x2="-0.2381" y2="0.2381" width="0.127" layer="51"/>
<smd name="PAD" x="0" y="0" dx="0.5996" dy="0.5996" layer="1"/>
<text x="0.635" y="-0.4763" size="1.016" layer="25" ratio="12">&gt;NAME</text>
</package>
<package name="SMD07R">
<description>&lt;b&gt;SMD PAD&lt;/b&gt;&lt;p&gt; Round</description>
<circle x="0" y="0" radius="0.2245" width="0.127" layer="51"/>
<smd name="PAD" x="0" y="0" dx="0.7" dy="0.7" layer="1" roundness="100"/>
<text x="0.7938" y="-0.4763" size="1.016" layer="25" ratio="12">&gt;NAME</text>
</package>
<package name="SMD07S">
<description>&lt;b&gt;SMD PAD&lt;/b&gt;&lt;p&gt; Square</description>
<wire x1="-0.2381" y1="0.2381" x2="0.2381" y2="0.2381" width="0.127" layer="51"/>
<wire x1="0.2381" y1="0.2381" x2="0.2381" y2="-0.2381" width="0.127" layer="51"/>
<wire x1="0.2381" y1="-0.2381" x2="-0.2381" y2="-0.2381" width="0.127" layer="51"/>
<wire x1="-0.2381" y1="-0.2381" x2="-0.2381" y2="0.2381" width="0.127" layer="51"/>
<smd name="PAD" x="0" y="0" dx="0.7" dy="0.7" layer="1"/>
<text x="0.7144" y="-0.4763" size="1.016" layer="25" ratio="12">&gt;NAME</text>
</package>
<package name="SMD08R">
<description>&lt;b&gt;SMD PAD&lt;/b&gt;&lt;p&gt; Round</description>
<circle x="0" y="0" radius="0.3175" width="0.127" layer="51"/>
<smd name="PAD" x="0" y="0" dx="0.8" dy="0.8" layer="1" roundness="100"/>
<text x="0.6351" y="-0.4763" size="1.016" layer="25" ratio="12">&gt;NAME</text>
</package>
<package name="SMD08S">
<description>&lt;b&gt;SMD PAD&lt;/b&gt;&lt;p&gt; Square</description>
<wire x1="-0.3175" y1="0.3175" x2="0.3175" y2="0.3175" width="0.127" layer="51"/>
<wire x1="0.3175" y1="0.3175" x2="0.3175" y2="-0.3175" width="0.127" layer="51"/>
<wire x1="0.3175" y1="-0.3175" x2="-0.3175" y2="-0.3175" width="0.127" layer="51"/>
<wire x1="-0.3175" y1="-0.3175" x2="-0.3175" y2="0.3175" width="0.127" layer="51"/>
<smd name="PAD" x="0" y="0" dx="0.8" dy="0.8" layer="1"/>
<text x="0.7938" y="-0.4763" size="1.016" layer="25" ratio="12">&gt;NAME</text>
</package>
<package name="SMD09R">
<description>&lt;b&gt;SMD PAD&lt;/b&gt;&lt;p&gt; Round</description>
<circle x="0" y="0" radius="0.3549" width="0.127" layer="51"/>
<smd name="PAD" x="0" y="0" dx="0.9" dy="0.9" layer="1" roundness="100"/>
<text x="0.635" y="-0.4763" size="1.016" layer="25" ratio="12">&gt;NAME</text>
</package>
<package name="SMD09S">
<description>&lt;b&gt;SMD PAD&lt;/b&gt;&lt;p&gt; Square</description>
<wire x1="-0.3969" y1="0.3969" x2="0.3969" y2="0.3969" width="0.127" layer="51"/>
<wire x1="0.3969" y1="0.3969" x2="0.3969" y2="-0.3969" width="0.127" layer="51"/>
<wire x1="0.3969" y1="-0.3969" x2="-0.3969" y2="-0.3969" width="0.127" layer="51"/>
<wire x1="-0.3969" y1="-0.3969" x2="-0.3969" y2="0.3969" width="0.127" layer="51"/>
<smd name="PAD" x="0" y="0" dx="0.8998" dy="0.8998" layer="1"/>
<text x="0.7938" y="-0.4763" size="1.016" layer="25" ratio="12">&gt;NAME</text>
</package>
<package name="SMD10R">
<description>&lt;b&gt;SMD PAD&lt;/b&gt;&lt;p&gt; Round</description>
<circle x="0" y="0" radius="0.449" width="0.127" layer="51"/>
<smd name="PAD" x="0" y="0" dx="1" dy="1" layer="1" roundness="100"/>
<text x="0.7937" y="-0.4763" size="1.016" layer="25" ratio="12">&gt;NAME</text>
</package>
<package name="SMD10S">
<description>&lt;b&gt;SMD PAD&lt;/b&gt;&lt;p&gt; Square</description>
<wire x1="-0.3969" y1="0.3969" x2="0.3969" y2="0.3969" width="0.127" layer="51"/>
<wire x1="0.3969" y1="0.3969" x2="0.3969" y2="-0.3969" width="0.127" layer="51"/>
<wire x1="0.3969" y1="-0.3969" x2="-0.3969" y2="-0.3969" width="0.127" layer="51"/>
<wire x1="-0.3969" y1="-0.3969" x2="-0.3969" y2="0.3969" width="0.127" layer="51"/>
<smd name="PAD" x="0" y="0" dx="1" dy="1" layer="1"/>
<text x="0.8731" y="-0.4763" size="1.016" layer="25" ratio="12">&gt;NAME</text>
</package>
<package name="SMD11R">
<description>&lt;b&gt;SMD PAD&lt;/b&gt;&lt;p&gt; Round</description>
<circle x="0" y="0" radius="0.502" width="0.127" layer="51"/>
<smd name="PAD" x="0" y="0" dx="1.1" dy="1.1" layer="1" roundness="100"/>
<text x="0.8731" y="-0.4763" size="1.016" layer="25" ratio="12">&gt;NAME</text>
</package>
<package name="SMD11S">
<description>&lt;b&gt;SMD PAD&lt;/b&gt;&lt;p&gt; Square</description>
<wire x1="-0.4763" y1="0.4763" x2="0.4763" y2="0.4763" width="0.127" layer="51"/>
<wire x1="0.4763" y1="0.4763" x2="0.4763" y2="-0.4763" width="0.127" layer="51"/>
<wire x1="0.4763" y1="-0.4763" x2="-0.4763" y2="-0.4763" width="0.127" layer="51"/>
<wire x1="-0.4763" y1="-0.4763" x2="-0.4763" y2="0.4763" width="0.127" layer="51"/>
<smd name="PAD" x="0" y="0" dx="1.1" dy="1.1" layer="1"/>
<text x="0.9525" y="-0.4763" size="1.016" layer="25" ratio="12">&gt;NAME</text>
</package>
<package name="SMD12R">
<description>&lt;b&gt;SMD PAD&lt;/b&gt;&lt;p&gt; Round</description>
<circle x="0" y="0" radius="0.502" width="0.127" layer="51"/>
<smd name="PAD" x="0" y="0" dx="1.2" dy="1.2" layer="1" roundness="100"/>
<text x="0.9524" y="-0.4763" size="1.016" layer="25" ratio="12">&gt;NAME</text>
</package>
<package name="SMD12S">
<description>&lt;b&gt;SMD PAD&lt;/b&gt;&lt;p&gt; Square</description>
<wire x1="-0.4763" y1="0.4763" x2="0.4763" y2="0.4763" width="0.127" layer="51"/>
<wire x1="0.4763" y1="0.4763" x2="0.4763" y2="-0.4763" width="0.127" layer="51"/>
<wire x1="0.4763" y1="-0.4763" x2="-0.4763" y2="-0.4763" width="0.127" layer="51"/>
<wire x1="-0.4763" y1="-0.4763" x2="-0.4763" y2="0.4763" width="0.127" layer="51"/>
<smd name="PAD" x="0" y="0" dx="1.1998" dy="1.1998" layer="1"/>
<text x="0.9525" y="-0.4763" size="1.016" layer="25" ratio="12">&gt;NAME</text>
</package>
<package name="SMD13R">
<description>&lt;b&gt;SMD PAD&lt;/b&gt;&lt;p&gt; Round</description>
<circle x="0" y="0" radius="0.5724" width="0.127" layer="51"/>
<smd name="PAD" x="0" y="0" dx="1.3" dy="1.3" layer="1" roundness="100"/>
<text x="0.9524" y="-0.4763" size="1.016" layer="25" ratio="12">&gt;NAME</text>
</package>
<package name="SMD13S">
<description>&lt;b&gt;SMD PAD&lt;/b&gt;&lt;p&gt; Square</description>
<wire x1="-0.5556" y1="0.5556" x2="0.5556" y2="0.5556" width="0.127" layer="51"/>
<wire x1="0.5556" y1="0.5556" x2="0.5556" y2="-0.5556" width="0.127" layer="51"/>
<wire x1="0.5556" y1="-0.5556" x2="-0.5556" y2="-0.5556" width="0.127" layer="51"/>
<wire x1="-0.5556" y1="-0.5556" x2="-0.5556" y2="0.5556" width="0.127" layer="51"/>
<smd name="PAD" x="0" y="0" dx="1.3" dy="1.3" layer="1"/>
<text x="1.0319" y="-0.4763" size="1.016" layer="25" ratio="12">&gt;NAME</text>
</package>
<package name="SMD14R">
<description>&lt;b&gt;SMD PAD&lt;/b&gt;&lt;p&gt; Round</description>
<circle x="0" y="0" radius="0.5724" width="0.127" layer="51"/>
<smd name="PAD" x="0" y="0" dx="1.4" dy="1.4" layer="1" roundness="100"/>
<text x="1.1112" y="-0.4763" size="1.016" layer="25" ratio="12">&gt;NAME</text>
</package>
<package name="SMD14S">
<description>&lt;b&gt;SMD PAD&lt;/b&gt;&lt;p&gt; Square</description>
<wire x1="-0.5556" y1="0.5556" x2="0.5556" y2="0.5556" width="0.127" layer="51"/>
<wire x1="0.5556" y1="0.5556" x2="0.5556" y2="-0.5556" width="0.127" layer="51"/>
<wire x1="0.5556" y1="-0.5556" x2="-0.5556" y2="-0.5556" width="0.127" layer="51"/>
<wire x1="-0.5556" y1="-0.5556" x2="-0.5556" y2="0.5556" width="0.127" layer="51"/>
<smd name="PAD" x="0" y="0" dx="1.4" dy="1.4" layer="1"/>
<text x="1.0319" y="-0.4763" size="1.016" layer="25" ratio="12">&gt;NAME</text>
</package>
<package name="SMD15R">
<description>&lt;b&gt;SMD PAD&lt;/b&gt;&lt;p&gt; Round</description>
<circle x="0" y="0" radius="0.6545" width="0.127" layer="51"/>
<smd name="PAD" x="0" y="0" dx="1.5" dy="1.5" layer="1" roundness="100"/>
<text x="0.9526" y="-0.4763" size="1.016" layer="25" ratio="12">&gt;NAME</text>
</package>
<package name="SMD15S">
<description>&lt;b&gt;SMD PAD&lt;/b&gt;&lt;p&gt; Square</description>
<wire x1="-0.635" y1="0.635" x2="0.635" y2="0.635" width="0.127" layer="51"/>
<wire x1="0.635" y1="0.635" x2="0.635" y2="-0.635" width="0.127" layer="51"/>
<wire x1="0.635" y1="-0.635" x2="-0.635" y2="-0.635" width="0.127" layer="51"/>
<wire x1="-0.635" y1="-0.635" x2="-0.635" y2="0.635" width="0.127" layer="51"/>
<smd name="PAD" x="0" y="0" dx="1.5" dy="1.5" layer="1"/>
<text x="1.1113" y="-0.4763" size="1.016" layer="25" ratio="12">&gt;NAME</text>
</package>
<package name="SMD16R">
<description>&lt;b&gt;SMD PAD&lt;/b&gt;&lt;p&gt; Round</description>
<circle x="0" y="0" radius="0.7099" width="0.127" layer="51"/>
<smd name="PAD" x="0" y="0" dx="1.6" dy="1.6" layer="1" roundness="100"/>
<text x="1.032" y="-0.4763" size="1.016" layer="25" ratio="12">&gt;NAME</text>
</package>
<package name="SMD16S">
<description>&lt;b&gt;SMD PAD&lt;/b&gt;&lt;p&gt; Square</description>
<wire x1="-0.7144" y1="0.7144" x2="0.7144" y2="0.7144" width="0.127" layer="51"/>
<wire x1="0.7144" y1="0.7144" x2="0.7144" y2="-0.7144" width="0.127" layer="51"/>
<wire x1="0.7144" y1="-0.7144" x2="-0.7144" y2="-0.7144" width="0.127" layer="51"/>
<wire x1="-0.7144" y1="-0.7144" x2="-0.7144" y2="0.7144" width="0.127" layer="51"/>
<smd name="PAD" x="0" y="0" dx="1.5996" dy="1.5996" layer="1"/>
<text x="1.1906" y="-0.4763" size="1.016" layer="25" ratio="12">&gt;NAME</text>
</package>
<package name="SMD17R">
<description>&lt;b&gt;SMD PAD&lt;/b&gt;&lt;p&gt; Round</description>
<circle x="0" y="0" radius="0.7099" width="0.127" layer="51"/>
<smd name="PAD" x="0" y="0" dx="1.7" dy="1.7" layer="1" roundness="100"/>
<text x="1.2699" y="-0.4763" size="1.016" layer="25" ratio="12">&gt;NAME</text>
</package>
<package name="SMD17S">
<description>&lt;b&gt;SMD PAD&lt;/b&gt;&lt;p&gt; Square</description>
<wire x1="-0.7144" y1="0.7144" x2="0.7144" y2="0.7144" width="0.127" layer="51"/>
<wire x1="0.7144" y1="0.7144" x2="0.7144" y2="-0.7144" width="0.127" layer="51"/>
<wire x1="0.7144" y1="-0.7144" x2="-0.7144" y2="-0.7144" width="0.127" layer="51"/>
<wire x1="-0.7144" y1="-0.7144" x2="-0.7144" y2="0.7144" width="0.127" layer="51"/>
<smd name="PAD" x="0" y="0" dx="1.7" dy="1.7" layer="1"/>
<text x="1.1906" y="-0.635" size="1.27" layer="25" ratio="12">&gt;NAME</text>
</package>
<package name="SMD18R">
<description>&lt;b&gt;SMD PAD&lt;/b&gt;&lt;p&gt; Round</description>
<circle x="0" y="0" radius="0.8095" width="0.127" layer="51"/>
<smd name="PAD" x="0" y="0" dx="1.8" dy="1.8" layer="1" roundness="100"/>
<text x="1.4287" y="-0.4763" size="1.016" layer="25" ratio="12">&gt;NAME</text>
</package>
<package name="SMD18S">
<description>&lt;b&gt;SMD PAD&lt;/b&gt;&lt;p&gt; Square</description>
<wire x1="-0.7938" y1="0.7938" x2="0.7938" y2="0.7938" width="0.127" layer="51"/>
<wire x1="0.7938" y1="0.7938" x2="0.7938" y2="-0.7938" width="0.127" layer="51"/>
<wire x1="0.7938" y1="-0.7938" x2="-0.7938" y2="-0.7938" width="0.127" layer="51"/>
<wire x1="-0.7938" y1="-0.7938" x2="-0.7938" y2="0.7938" width="0.127" layer="51"/>
<smd name="PAD" x="0" y="0" dx="1.8" dy="1.8" layer="1"/>
<text x="1.5875" y="-0.4763" size="1.016" layer="25" ratio="12">&gt;NAME</text>
</package>
<package name="SMD19R">
<description>&lt;b&gt;SMD PAD&lt;/b&gt;&lt;p&gt; Round</description>
<circle x="0" y="0" radius="0.8549" width="0.127" layer="51"/>
<smd name="PAD" x="0" y="0" dx="1.9" dy="1.9" layer="1" roundness="100"/>
<text x="1.5875" y="-0.4763" size="1.016" layer="25" ratio="12">&gt;NAME</text>
</package>
<package name="SMD19S">
<description>&lt;b&gt;SMD PAD&lt;/b&gt;&lt;p&gt; Square</description>
<wire x1="-0.7938" y1="0.7938" x2="0.7938" y2="0.7938" width="0.127" layer="51"/>
<wire x1="0.7938" y1="0.7938" x2="0.7938" y2="-0.7938" width="0.127" layer="51"/>
<wire x1="0.7938" y1="-0.7938" x2="-0.7938" y2="-0.7938" width="0.127" layer="51"/>
<wire x1="-0.7938" y1="-0.7938" x2="-0.7938" y2="0.7938" width="0.127" layer="51"/>
<smd name="PAD" x="0" y="0" dx="1.8998" dy="1.8998" layer="1"/>
<text x="1.6669" y="-0.4763" size="1.016" layer="25" ratio="12">&gt;NAME</text>
</package>
<package name="SMD20R">
<description>&lt;b&gt;SMD PAD&lt;/b&gt;&lt;p&gt; Round</description>
<circle x="0" y="0" radius="0.8549" width="0.127" layer="51"/>
<smd name="PAD" x="0" y="0" dx="2" dy="2" layer="1" roundness="100"/>
<text x="1.6669" y="-0.4763" size="1.016" layer="25" ratio="12">&gt;NAME</text>
</package>
<package name="SMD20S">
<description>&lt;b&gt;SMD PAD&lt;/b&gt;&lt;p&gt; Square</description>
<wire x1="-0.8731" y1="0.8731" x2="0.8731" y2="0.8731" width="0.127" layer="51"/>
<wire x1="0.8731" y1="0.8731" x2="0.8731" y2="-0.8731" width="0.127" layer="51"/>
<wire x1="0.8731" y1="-0.8731" x2="-0.8731" y2="-0.8731" width="0.127" layer="51"/>
<wire x1="-0.8731" y1="-0.8731" x2="-0.8731" y2="0.8731" width="0.127" layer="51"/>
<smd name="PAD" x="0" y="0" dx="2" dy="2" layer="1"/>
<text x="1.6669" y="-0.4763" size="1.016" layer="25" ratio="12">&gt;NAME</text>
</package>
</packages>
<symbols>
<symbol name="PAD">
<wire x1="-1.016" y1="1.016" x2="1.016" y2="-1.016" width="0.254" layer="94"/>
<wire x1="-1.016" y1="-1.016" x2="1.016" y2="1.016" width="0.254" layer="94"/>
<text x="1.905" y="-0.9525" size="1.778" layer="95">&gt;NAME</text>
<pin name="P" x="-2.54" y="0" visible="off" length="short" direction="pas"/>
</symbol>
</symbols>
<devicesets>
<deviceset name="PAD" prefix="PAD">
<description>&lt;b&gt;WIRE PAD&lt;/b&gt;&lt;br&gt;
Standard US Drill Sizes and SMD pads</description>
<gates>
<gate name="G$1" symbol="PAD" x="2.54" y="0"/>
</gates>
<devices>
<device name="-0240" package="0240">
<connects>
<connect gate="G$1" pin="P" pad="P$1"/>
</connects>
<technologies>
<technology name=""/>
</technologies>
</device>
<device name="-0280" package="0280">
<connects>
<connect gate="G$1" pin="P" pad="P$1"/>
</connects>
<technologies>
<technology name=""/>
</technologies>
</device>
<device name="-0320" package="0320">
<connects>
<connect gate="G$1" pin="P" pad="P$1"/>
</connects>
<technologies>
<technology name=""/>
</technologies>
</device>
<device name="-0360" package="0360">
<connects>
<connect gate="G$1" pin="P" pad="P$1"/>
</connects>
<technologies>
<technology name=""/>
</technologies>
</device>
<device name="-0420" package="0420">
<connects>
<connect gate="G$1" pin="P" pad="P$1"/>
</connects>
<technologies>
<technology name=""/>
</technologies>
</device>
<device name="-0465" package="0465">
<connects>
<connect gate="G$1" pin="P" pad="P$1"/>
</connects>
<technologies>
<technology name=""/>
</technologies>
</device>
<device name="-0520" package="0520">
<connects>
<connect gate="G$1" pin="P" pad="P$1"/>
</connects>
<technologies>
<technology name=""/>
</technologies>
</device>
<device name="-0550" package="0550">
<connects>
<connect gate="G$1" pin="P" pad="P$1"/>
</connects>
<technologies>
<technology name=""/>
</technologies>
</device>
<device name="-0595" package="0595">
<connects>
<connect gate="G$1" pin="P" pad="P$1"/>
</connects>
<technologies>
<technology name=""/>
</technologies>
</device>
<device name="-0635" package="0635">
<connects>
<connect gate="G$1" pin="P" pad="P$1"/>
</connects>
<technologies>
<technology name=""/>
</technologies>
</device>
<device name="-0670" package="0670">
<connects>
<connect gate="G$1" pin="P" pad="P$1"/>
</connects>
<technologies>
<technology name=""/>
</technologies>
</device>
<device name="-0730" package="0730">
<connects>
<connect gate="G$1" pin="P" pad="P$1"/>
</connects>
<technologies>
<technology name=""/>
</technologies>
</device>
<device name="-0760" package="0760">
<connects>
<connect gate="G$1" pin="P" pad="P$1"/>
</connects>
<technologies>
<technology name=""/>
</technologies>
</device>
<device name="-0820" package="0820">
<connects>
<connect gate="G$1" pin="P" pad="P$1"/>
</connects>
<technologies>
<technology name=""/>
</technologies>
</device>
<device name="-0660" package="0660">
<connects>
<connect gate="G$1" pin="P" pad="P$1"/>
</connects>
<technologies>
<technology name=""/>
</technologies>
</device>
<device name="-0560" package="0560">
<connects>
<connect gate="G$1" pin="P" pad="P$1"/>
</connects>
<technologies>
<technology name=""/>
</technologies>
</device>
<device name="-0460" package="0460">
<connects>
<connect gate="G$1" pin="P" pad="P$1"/>
</connects>
<technologies>
<technology name=""/>
</technologies>
</device>
<device name="-0440" package="0440">
<connects>
<connect gate="G$1" pin="P" pad="P$1"/>
</connects>
<technologies>
<technology name=""/>
</technologies>
</device>
<device name="-0400" package="0400">
<connects>
<connect gate="G$1" pin="P" pad="P$1"/>
</connects>
<technologies>
<technology name=""/>
</technologies>
</device>
<device name="-0500" package="0500">
<connects>
<connect gate="G$1" pin="P" pad="P$1"/>
</connects>
<technologies>
<technology name=""/>
</technologies>
</device>
<device name="-0240-S" package="0240-S">
<connects>
<connect gate="G$1" pin="P" pad="P$1"/>
</connects>
<technologies>
<technology name=""/>
</technologies>
</device>
<device name="-0280-S" package="0280-S">
<connects>
<connect gate="G$1" pin="P" pad="P$1"/>
</connects>
<technologies>
<technology name=""/>
</technologies>
</device>
<device name="-0320-S" package="0320-S">
<connects>
<connect gate="G$1" pin="P" pad="P$1"/>
</connects>
<technologies>
<technology name=""/>
</technologies>
</device>
<device name="-0360-S" package="0360-S">
<connects>
<connect gate="G$1" pin="P" pad="P$1"/>
</connects>
<technologies>
<technology name=""/>
</technologies>
</device>
<device name="-0400-S" package="0400-S">
<connects>
<connect gate="G$1" pin="P" pad="P$1"/>
</connects>
<technologies>
<technology name=""/>
</technologies>
</device>
<device name="-0420-S" package="0420-S">
<connects>
<connect gate="G$1" pin="P" pad="P$1"/>
</connects>
<technologies>
<technology name=""/>
</technologies>
</device>
<device name="-0440-S" package="0440-S">
<connects>
<connect gate="G$1" pin="P" pad="P$1"/>
</connects>
<technologies>
<technology name=""/>
</technologies>
</device>
<device name="-0460-S" package="0460-S">
<connects>
<connect gate="G$1" pin="P" pad="P$1"/>
</connects>
<technologies>
<technology name=""/>
</technologies>
</device>
<device name="-0465-S" package="0465-S">
<connects>
<connect gate="G$1" pin="P" pad="P$1"/>
</connects>
<technologies>
<technology name=""/>
</technologies>
</device>
<device name="-0500-S" package="0500-S">
<connects>
<connect gate="G$1" pin="P" pad="P$1"/>
</connects>
<technologies>
<technology name=""/>
</technologies>
</device>
<device name="-0520-S" package="0520-S">
<connects>
<connect gate="G$1" pin="P" pad="P$1"/>
</connects>
<technologies>
<technology name=""/>
</technologies>
</device>
<device name="-0550-S" package="0550-S">
<connects>
<connect gate="G$1" pin="P" pad="P$1"/>
</connects>
<technologies>
<technology name=""/>
</technologies>
</device>
<device name="-0560-S" package="0560-S">
<connects>
<connect gate="G$1" pin="P" pad="P$1"/>
</connects>
<technologies>
<technology name=""/>
</technologies>
</device>
<device name="-0595-S" package="0595-S">
<connects>
<connect gate="G$1" pin="P" pad="P$1"/>
</connects>
<technologies>
<technology name=""/>
</technologies>
</device>
<device name="-0635-S" package="0635-S">
<connects>
<connect gate="G$1" pin="P" pad="P$1"/>
</connects>
<technologies>
<technology name=""/>
</technologies>
</device>
<device name="-0660-S" package="0660-S">
<connects>
<connect gate="G$1" pin="P" pad="P$1"/>
</connects>
<technologies>
<technology name=""/>
</technologies>
</device>
<device name="-0670-S" package="0670-S">
<connects>
<connect gate="G$1" pin="P" pad="P$1"/>
</connects>
<technologies>
<technology name=""/>
</technologies>
</device>
<device name="-0730-S" package="0730-S">
<connects>
<connect gate="G$1" pin="P" pad="P$1"/>
</connects>
<technologies>
<technology name=""/>
</technologies>
</device>
<device name="-0760-S" package="0760-S">
<connects>
<connect gate="G$1" pin="P" pad="P$1"/>
</connects>
<technologies>
<technology name=""/>
</technologies>
</device>
<device name="-0820-S" package="0820-S">
<connects>
<connect gate="G$1" pin="P" pad="P$1"/>
</connects>
<technologies>
<technology name=""/>
</technologies>
</device>
<device name="-SMD06R" package="SMD06R">
<connects>
<connect gate="G$1" pin="P" pad="PAD"/>
</connects>
<technologies>
<technology name=""/>
</technologies>
</device>
<device name="-SMD06S" package="SMD06S">
<connects>
<connect gate="G$1" pin="P" pad="PAD"/>
</connects>
<technologies>
<technology name=""/>
</technologies>
</device>
<device name="-SMD07R" package="SMD07R">
<connects>
<connect gate="G$1" pin="P" pad="PAD"/>
</connects>
<technologies>
<technology name=""/>
</technologies>
</device>
<device name="-SMD07S" package="SMD07S">
<connects>
<connect gate="G$1" pin="P" pad="PAD"/>
</connects>
<technologies>
<technology name=""/>
</technologies>
</device>
<device name="-SMD08R" package="SMD08R">
<connects>
<connect gate="G$1" pin="P" pad="PAD"/>
</connects>
<technologies>
<technology name=""/>
</technologies>
</device>
<device name="-SMD08S" package="SMD08S">
<connects>
<connect gate="G$1" pin="P" pad="PAD"/>
</connects>
<technologies>
<technology name=""/>
</technologies>
</device>
<device name="-SMD09R" package="SMD09R">
<connects>
<connect gate="G$1" pin="P" pad="PAD"/>
</connects>
<technologies>
<technology name=""/>
</technologies>
</device>
<device name="-SMD09S" package="SMD09S">
<connects>
<connect gate="G$1" pin="P" pad="PAD"/>
</connects>
<technologies>
<technology name=""/>
</technologies>
</device>
<device name="-SMD10R" package="SMD10R">
<connects>
<connect gate="G$1" pin="P" pad="PAD"/>
</connects>
<technologies>
<technology name=""/>
</technologies>
</device>
<device name="-SMD10S" package="SMD10S">
<connects>
<connect gate="G$1" pin="P" pad="PAD"/>
</connects>
<technologies>
<technology name=""/>
</technologies>
</device>
<device name="-SMD11R" package="SMD11R">
<connects>
<connect gate="G$1" pin="P" pad="PAD"/>
</connects>
<technologies>
<technology name=""/>
</technologies>
</device>
<device name="-SMD11S" package="SMD11S">
<connects>
<connect gate="G$1" pin="P" pad="PAD"/>
</connects>
<technologies>
<technology name=""/>
</technologies>
</device>
<device name="-SMD12R" package="SMD12R">
<connects>
<connect gate="G$1" pin="P" pad="PAD"/>
</connects>
<technologies>
<technology name=""/>
</technologies>
</device>
<device name="-SMD12S" package="SMD12S">
<connects>
<connect gate="G$1" pin="P" pad="PAD"/>
</connects>
<technologies>
<technology name=""/>
</technologies>
</device>
<device name="-SMD13R" package="SMD13R">
<connects>
<connect gate="G$1" pin="P" pad="PAD"/>
</connects>
<technologies>
<technology name=""/>
</technologies>
</device>
<device name="-SMD13S" package="SMD13S">
<connects>
<connect gate="G$1" pin="P" pad="PAD"/>
</connects>
<technologies>
<technology name=""/>
</technologies>
</device>
<device name="-SMD14R" package="SMD14R">
<connects>
<connect gate="G$1" pin="P" pad="PAD"/>
</connects>
<technologies>
<technology name=""/>
</technologies>
</device>
<device name="-SMD14S" package="SMD14S">
<connects>
<connect gate="G$1" pin="P" pad="PAD"/>
</connects>
<technologies>
<technology name=""/>
</technologies>
</device>
<device name="-SMD15R" package="SMD15R">
<connects>
<connect gate="G$1" pin="P" pad="PAD"/>
</connects>
<technologies>
<technology name=""/>
</technologies>
</device>
<device name="-SMD15S" package="SMD15S">
<connects>
<connect gate="G$1" pin="P" pad="PAD"/>
</connects>
<technologies>
<technology name=""/>
</technologies>
</device>
<device name="-SMD16R" package="SMD16R">
<connects>
<connect gate="G$1" pin="P" pad="PAD"/>
</connects>
<technologies>
<technology name=""/>
</technologies>
</device>
<device name="-SMD16S" package="SMD16S">
<connects>
<connect gate="G$1" pin="P" pad="PAD"/>
</connects>
<technologies>
<technology name=""/>
</technologies>
</device>
<device name="-SMD17R" package="SMD17R">
<connects>
<connect gate="G$1" pin="P" pad="PAD"/>
</connects>
<technologies>
<technology name=""/>
</technologies>
</device>
<device name="-SMD17S" package="SMD17S">
<connects>
<connect gate="G$1" pin="P" pad="PAD"/>
</connects>
<technologies>
<technology name=""/>
</technologies>
</device>
<device name="-SMD18R" package="SMD18R">
<connects>
<connect gate="G$1" pin="P" pad="PAD"/>
</connects>
<technologies>
<technology name=""/>
</technologies>
</device>
<device name="-SMD18S" package="SMD18S">
<connects>
<connect gate="G$1" pin="P" pad="PAD"/>
</connects>
<technologies>
<technology name=""/>
</technologies>
</device>
<device name="-SMD19R" package="SMD19R">
<connects>
<connect gate="G$1" pin="P" pad="PAD"/>
</connects>
<technologies>
<technology name=""/>
</technologies>
</device>
<device name="-SMD19S" package="SMD19S">
<connects>
<connect gate="G$1" pin="P" pad="PAD"/>
</connects>
<technologies>
<technology name=""/>
</technologies>
</device>
<device name="-SMD20R" package="SMD20R">
<connects>
<connect gate="G$1" pin="P" pad="PAD"/>
</connects>
<technologies>
<technology name=""/>
</technologies>
</device>
<device name="-SMD20S" package="SMD20S">
<connects>
<connect gate="G$1" pin="P" pad="PAD"/>
</connects>
<technologies>
<technology name=""/>
</technologies>
</device>
</devices>
</deviceset>
</devicesets>
</library>
</libraries>
<attributes>
</attributes>
<variantdefs>
</variantdefs>
<classes>
<class number="0" name="default" width="0" drill="0">
</class>
</classes>
<parts>
<part name="MK1" library="MP23AB02BTR" deviceset="MP23AB02BTR" device=""/>
<part name="SIG" library="dpads" deviceset="PAD" device="-0240"/>
<part name="V2.5" library="dpads" deviceset="PAD" device="-0240"/>
<part name="GND" library="dpads" deviceset="PAD" device="-0240"/>
</parts>
<sheets>
<sheet>
<plain>
</plain>
<instances>
<instance part="MK1" gate="G$1" x="45.72" y="53.34"/>
<instance part="SIG" gate="G$1" x="25.4" y="53.34" rot="R180"/>
<instance part="V2.5" gate="G$1" x="68.58" y="55.88"/>
<instance part="GND" gate="G$1" x="68.58" y="50.8"/>
</instances>
<busses>
</busses>
<nets>
<net name="N$1" class="0">
<segment>
<pinref part="SIG" gate="G$1" pin="P"/>
<pinref part="MK1" gate="G$1" pin="OUT"/>
<wire x1="27.94" y1="53.34" x2="30.48" y2="50.8" width="0.1524" layer="91"/>
</segment>
</net>
<net name="N$2" class="0">
<segment>
<pinref part="MK1" gate="G$1" pin="VDD"/>
<pinref part="V2.5" gate="G$1" pin="P"/>
<wire x1="60.96" y1="55.88" x2="66.04" y2="55.88" width="0.1524" layer="91"/>
</segment>
</net>
<net name="N$3" class="0">
<segment>
<pinref part="MK1" gate="G$1" pin="GND"/>
<pinref part="GND" gate="G$1" pin="P"/>
<wire x1="60.96" y1="50.8" x2="66.04" y2="50.8" width="0.1524" layer="91"/>
</segment>
</net>
</nets>
</sheet>
</sheets>
</schematic>
</drawing>
</eagle>
